1 10 20
100 200 125
201 210 89
900 1000 174
10 1 20
100 100 26
200 100 125
5 5 6
2 3 8
25 38 112
5209 8446 262
1975 7024 262
2589 7515 262
2918 3922 238
3022 3351 199
2052 4421 238
854 7358 262
210 5061 238
6886 9062 257
3681 5953 238
651 9489 262
3840 5058 215
1051 2772 209
2085 8943 262
2458 4983 238
7482 9514 260
1736 5221 238
839 2067 182
1592 9615 262
5132 7545 262
1815 7364 262
4731 8566 262
3372 7114 262
3411 7795 262
1019 1226 182
2137 2477 209
3852 5170 215
2070 3569 217
1407 3493 217
2458 6132 238
2873 6598 262
6104 7573 262
9058 9589 260
501 544 137
695 7983 262
2837 8498 262
6032 8624 262
6380 9620 260
3695 6639 262
356 5531 238
1608 1959 180
2182 8904 262
4365 7670 262
5348 8042 262
1901 7637 262
4407 5223 210
6312 7832 257
8304 9461 260
3393 4403 238
97 2529 209
4617 9749 262
1562 1858 180
295 3979 238
6446 8937 257
3842 6502 262
447 1296 182
7698 8032 252
4911 4961 210
4948 8999 262
1750 6038 238
1410 3519 217
6077 8318 262
2700 5883 238
297 2063 182
726 4942 238
8400 8592 203
6453 8270 257
1136 7842 262
4258 6560 262
5732 8861 262
1189 6255 262
270 343 144
1 1495 182
5800 7428 262
7999 8274 190
3842 4784 215
812 6410 262
1387 5614 238
99 3132 217
1884 6596 262
4505 4614 184
1141 5544 238
722 9324 262
1070 7198 262
3814 6051 236
7653 9943 260
4751 8228 262
3791 9892 262
750 1683 182
1443 9430 262
1710 8011 262
1492 9198 262
6159 7050 262
4488 8178 262
3140 9635 262
6980 8363 252
847 9566 262
1634 4427 238
2978 6819 262
3404 7315 262
4624 6899 262
6724 7641 257
3485 3685 194
1181 2241 183
3588 8705 262
702 4658 238
2671 8351 262
2042 5569 238
3271 6433 262
1155 4103 238
3827 5558 215
3982 8151 262
1319 5027 238
1763 7750 262
2132 8630 262
3546 4140 238
7749 8678 252
4135 8982 262
1417 2420 183
3024 4764 238
5757 8126 262
4927 5645 236
4438 7897 262
1157 7693 262
6371 8691 257
5957 9969 262
2218 8846 262
1215 1926 180
6398 8797 257
3076 5802 238
8613 8753 203
5696 6726 262
4226 7892 262
7990 8085 190
121 4445 238
765 9524 262
7778 8614 252
4241 5923 236
1582 8082 262
3459 4142 238
