.............
----------------------------------------------------------------------
Ran 13 tests in 123.565s

OK
Name             Stmts   Miss Branch BrPart  Cover   Missing
------------------------------------------------------------
Collatz.py          29      0      8      0   100%
TestCollatz.py      60      0      0      0   100%
------------------------------------------------------------
TOTAL               89      0      8      0   100%
